[
  {
    "Index":1,
    "SectionName":"Inspection",
    "SubSection":[
      {
        "Name":"Remote Key Functionality",
        "YType":"Type4",
        "YFields":{
          "Radios" : ["Replace Battery"]
        },
        "RType":"Type4",
        "RFields":{
          "Radios":["Damaged"]
        }
      },
      {
        "Name":"Protective Covers",
        "YType":"Type4",
        "YFields":{
          "Radios" : ["Cleaning Required"]
        },
        "RType":"Type2",
        "RFields":{
          "Radios":["Damaged"]
        }
      },
      {
        "Name":"Mileage & Fuel Level",
        "YType":"Type4",
        "YFields":{
          "Radios" : ["Cleaning Required"]
        },
        "RType":"Type2",
        "RFields":{
          "Radios":["Damaged"]
        }
      },
      {
        "Name":"Indicator lights",
        "YType":"Type4",
        "YFields":{
          "Radios" : ["Check Bulb", "Check Fuse", "Wiring"]
        },
        "RType":"Type2",
        "RFields":{
          "Radios":["Broken"]
        }
      },
      {
        "Name":"Warning Lights (Switches)",
        "YType":"Type4",
        "YFields":{
          "Radios" : ["Check Bulb", "Check Fuse", "Wiring"]
        },
        "RType":"Type4",
        "RFields":{
          "Radios":[]
        }
      },
      {
        "Name":"Lighting",
        "YType":"Type4",
        "YFields":{
          "Radios" : ["Check Bulb", "Fuse", "Wiring"]
        },
        "RType":"Type4",
        "RFields":{
          "Radios":["Not working"]
        }
      },
      {
        "Name":"Horn",
        "YType":"Type4",
        "YFields":{
          "Radios" : ["Check Horn Pad", "Fuse", "Wiring"]
        },
        "RType":"Type4",
        "RFields":{
          "Radios":["Not working as per standard"]
        }
      },
      {
        "Name":"Washers",
        "YType":"Type4",
        "YFields":{
          "Radios" : ["Nozzles", "Spray", "Fluid Level"]
        },
        "RType":"Type4",
        "RFields":{
          "Radios":["Topup Required", "Replacement Required"]
        }
      },
      {
        "Name":"Windscreen Wipers",
        "YType":"Type4",
        "YFields":{
          "Radios" : []
        },
        "RType":"Type2",
        "RFields":{
          "Radios":["Not working", "Damaged"]
        }
      },
      {
        "Name":"Rear-View Mirrors",
        "YType":"Type4",
        "YFields":{
          "Radios" : ["Crack", "Stability", "Operation"]
        },
        "RType":"Type2",
        "RFields":{
          "Radios":["Damaged"]
        }
      },
      {
        "Name":"Seat Belt Check(Front Seats)",
        "YType":"Type4",
        "YFields":{
          "Radios" : ["Clean if Dirty"]
        },
        "RType":"Type4",
        "RFields":{
          "Radios":["Self Retraction not working"]
        }
      },
      {
        "Name":"Steering",
        "YType":"Type4",
        "YFields":{
          "Radios" : ["Telescopic Movement", "Height Adjustment"]
        },
        "RType":"Type4",
        "RFields":{
          "Radios":["Not working as per standard"]
        }
      },
      {
        "Name":"Clutch",
        "YType":"Type4",
        "YFields":{
          "Radios" : ["Pedal Movement Noise", "Hardness"]
        },
        "RType":"Type4",
        "RFields":{
          "Radios":["Not working as per standard"]
        }
      },
      {
        "Name":"Brakes, include Hand brake",
        "YType":"Type4",
        "YFields":{
          "Radios" : ["Pedal Movement Noise", "Hardness"]
        },
        "RType":"Type4",
        "RFields":{
          "Radios":["Not working as per standard"]
        }
      }
    ]
  },
  {
    "Index":2,
    "SectionName":"Interior",
    "SubSection":[
      {
        "Name":"Odour (In the interior)",
        "YType":"Type4",
        "YFields":{
          "Radios" : []
        },
        "RType":"Type4",
        "RFields":{
          "Radios":["Value Added Service Required"]
        }
      },
      {
        "Name":"A/C(Functionality, Odour)",
        "YType":"Type4",
        "YFields":{
          "Radios" : []
        },
        "RType":"Type4",
        "RFields":{
          "Radios":["AC Cleaning Required"]
        }
      },
      {
        "Name":"Damage (Including Fixtures)",
        "YType":"Type4",
        "YFields":{
          "Radios" : []
        },
        "RType":"Type2",
        "RFields":{
          "Radios":["Damaged"]
        }
      },
      {
        "Name":"Dirt & Dust",
        "YType":"Type4",
        "YFields":{
          "Radios" : ["Interior Cleaning"]
        },
        "RType":"Type4",
        "RFields":{
          "Radios":[]
        }
      },
      {
        "Name":"Dashboard Warning Lamps",
        "YType":"Type4",
        "YFields":{
          "Radios" : []
        },
        "RType":"Type3",
        "RFields":{
          "Hint":"Mention MIL Name"
        }
      },
      {
        "Name":"Navigation & Radio",
        "YType":"Type4",
        "YFields":{
          "Radios" : []
        },
        "RType":"Type4",
        "RFields":{
          "Radios":["Reset"]
        }
      },
      {
        "Name":"Volkswagen Connect",
        "YType":"Type4",
        "YFields":{
          "Radios" : ["Check for Updates"]
        },
        "RType":"Type4",
        "RFields":{
          "Radios":["Diagonisis on Connect Device/App"]
        }
      },
      {
        "Name":"Grill Temperature",
        "YType":"Type4",
        "YFields":{
          "Radios" : []
        },
        "RType":"Type3",
        "RFields":{
          "Hint":"Mention measurement using grill thermometer"
        }
      },
      {
        "Name":"Valuables in Car",
        "YType":"Type4",
        "YFields":{
          "Radios" : ["Returned to Customer"]
        },
        "RType":"Type3",
        "RFields":{
          "Hint":"Mention Valuables Found"
        }
      }
    ]
  },
  {
    "Index":3,
    "SectionName":"Exterior",
    "SubSection":[
      {
        "Name":"Body Checks (Diagram)",
        "YType":"Type2",
        "YFields":{
          "Radios" : ["Scratches"]
        },
        "RType":"Type2",
        "RFields":{
          "Radios":["Dents"]
        }
      },
      {
        "Name":"Glass check for Damage",
        "YType":"Type2",
        "YFields":{
          "Radios" : ["Chip mark"]
        },
        "RType":"Type2",
        "RFields":{
          "Radios":["Cracked"]
        }
      },
      {
        "Name":"Side & Protective Mouldings",
        "YType":"Type4",
        "YFields":{
          "Radios" : ["Scratches"]
        },
        "RType":"Type2",
        "RFields":{
          "Radios":["Dents", "Damage"]
        }
      },
      {
        "Name":"External Antena",
        "YType":"Type4",
        "YFields":{
          "Radios" : ["Loose"]
        },
        "RType":"Type2",
        "RFields":{
          "Radios":["Damage"]
        }
      },
      {
        "Name":"Head Lights",
        "YType":"Type4",
        "YFields":{
          "Radios" : ["HL Adjustments", "Dirty", "Soiled"]
        },
        "RType":"Type2",
        "RFields":{
          "Radios":["Bulb Not Working", "Scratch", "Damage"]
        }
      },
      {
        "Name":"Tail Lights",
        "YType":"Type4",
        "YFields":{
          "Radios" : ["Dirty", "Soiled"]
        },
        "RType":"Type2",
        "RFields":{
          "Radios":["Bulb Not Working", "Scratch", "Damage"]
        }
      },
      {
        "Name":"Turn Indicators",
        "YType":"Type4",
        "YFields":{
          "Radios" : ["Dirty", "Soiled"]
        },
        "RType":"Type2",
        "RFields":{
          "Radios":["Bulb Not Working", "Scratch", "Damage"]
        }
      }
    ]
  },
  {
    "Index":4,
    "SectionName":"Engine Compartment",
    "SubSection":[
      {
        "Name":"Engine Oil (Level Leaks)",
        "YType":"Type4",
        "YFields":{
          "Radios" : ["Level slightly below", "No leaks"]
        },
        "RType":"Type4",
        "RFields":{
          "Radios":["Level below reco. mark", "Leak observed", "Low oil viscosity"]
        }
      },
      {
        "Name":"Coolant Level, Leaks",
        "YType":"Type4",
        "YFields":{
          "Radios" : ["Level slightly below", "No leaks"]
        },
        "RType":"Type4",
        "RFields":{
          "Radios":["Level below reco. mark", "Leak observed"]
        }
      },
      {
        "Name":"Washer Fluid Level, Leaks",
        "YType":"Type4",
        "YFields":{
          "Radios" : ["Level slightly below", "No leaks"]
        },
        "RType":"Type4",
        "RFields":{
          "Radios":["Level below reco. mark", "Leak observed"]
        }
      },
      {
        "Name":"Battery Condition & Mounting",
        "YType":"Type4",
        "YFields":{
          "Radios" : ["Sulphation", "Loosely fitted"]
        },
        "RType":"Type2",
        "RFields":{
          "Radios":["Worn out", "Damaged"]
        }
      },
      {
        "Name":"Rodents Damage",
        "YType":"Type4",
        "YFields":{
          "Radios" : ["Minor damage to cables and wires"]
        },
        "RType":"Type2",
        "RFields":{
          "Radios":["Cut Marks", "Damaged wires and cables"]
        }
      },
      {
        "Name":"Break Fluids",
        "YType":"Type4",
        "YFields":{
          "Radios" : ["Level slightly below", "No leaks"]
        },
        "RType":"Type4",
        "RFields":{
          "Radios":["Level below reco. mark", "Leak observed"]
        }
      }
    ]
  },
  {
    "Index":5,
    "SectionName":"Boot",
    "SubSection":[
      {
        "Name":"Plastic Booth Dish/Net",
        "YType":"Type4",
        "YFields":{
          "Radios" : ["Loosely fitted"]
        },
        "RType":"Type4",
        "RFields":{
          "Radios":["Damaged", "Torn - Replace"]
        }
      },
      {
        "Name":"Spare Wheel",
        "YType":"Type2",
        "YFields":{
          "Radios" : ["Low Tire Pressure", "Loosely fitted"]
        },
        "RType":"Type2",
        "RFields":{
          "Radios":["Worn out", "Damaged", "Punctured"]
        }
      },
      {
        "Name":"Tyre Repair Kit & Tow Hook",
        "YType":"Type4",
        "YFields":{
          "Radios" : []
        },
        "RType":"Type2",
        "RFields":{
          "Radios":["Repair Kit Not Available", "Tow Hook Not available", "Damaged"]
        }
      },
      {
        "Name":"Jack",
        "YType":"Type4",
        "YFields":{
          "Radios" : []
        },
        "RType":"Type2",
        "RFields":{
          "Radios":["Jack Not Available", "Damaged"]
        }
      },
      {
        "Name":"Wheel Nut Wrench/Bolt Adaptor",
        "YType":"Type4",
        "YFields":{
          "Radios" : []
        },
        "RType":"Type2",
        "RFields":{
          "Radios":["Wrench", "Bolt Adapter Damaged", "Not Available"]
        }
      },
      {
        "Name":"First Aid Kit Expiration",
        "YType":"Type4",
        "YFields":{
          "Radios" : []
        },
        "RType":"Type4",
        "RFields":{
          "Radios":["Not Available", "Expired"]
        }
      },
      {
        "Name":"Warning Traingle",
        "YType":"Type4",
        "YFields":{
          "Radios" : []
        },
        "RType":"Type4",
        "RFields":{
          "Radios":["Not Available", "Damaged"]
        }
      },
      {
        "Name":"Spare Bulb Kit",
        "YType":"Type4",
        "YFields":{
          "Radios" : []
        },
        "RType":"Type4",
        "RFields":{
          "Radios":["Not Available"]
        }
      },
      {
        "Name":"Valuables in the boot",
        "YType":"Type4",
        "YFields":{
          "Radios" : ["Returned to Customer"]
        },
        "RType":"Type3",
        "RFields":{
          "Hint":"Mention Valuables Found"
        }
      }
    ]
  },
  {
    "Index":6,
    "SectionName":"Exterior Check",
    "SubSection":[
      {
        "Name":"Body Check Diagram*",
        "YType":"Type2",
        "YFields":{
          "Radios" : ["Mark Scratch", "Dent", "Damage"]
        },
        "RType":"Type2",
        "RFields":{
          "Radios":["Mark Scratch", "Dent", "Damage"]
        }
      },
      {
        "Name":"Wheel Discs",
        "YType":"Type2",
        "YFields":{
          "Radios" : ["Light Scratches", "Marks"]
        },
        "RType":"Type2",
        "RFields":{
          "Radios":["Deep Scratches", "Dented", "Damaged"]
        }
      },
      {
        "Name":"Tyres(Visual Check)",
        "YType":"Type4",
        "YFields":{
          "Radios" : ["Even wear pattern"]
        },
        "RType":"Type4",
        "RFields":{
          "Radios":["Uneven wear pattern", "Side Wall bulging"]
        }
      },
      {
        "Name":"Tyres(Depth Measurement)",
        "YType":"Type4",
        "YFields":{
          "Radios" : []
        },
        "RType":"Type3",
        "RFields":{
          "Hint":"Note Tire Depth using Gauge"
        }
      },
      {
        "Name":"Brake Pads Measurement",
        "YType":"Type4",
        "YFields":{
          "Radios" : []
        },
        "RType":"Type3",
        "RFields":{
          "Hint":"Mention Measurement using Special Tool"
        }
      },
      {
        "Name":"Brake Discs",
        "YType":"Type4",
        "YFields":{
          "Radios" : ["Rusted", "Light Scratches"]
        },
        "RType":"Type4",
        "RFields":{
          "Radios":["Wornout", "Deep Scratches", "Damaged"]
        }
      },
      {
        "Name":"Fluid Leak",
        "YType":"Type4",
        "YFields":{
          "Radios" : []
        },
        "RType":"Type4",
        "RFields":{
          "Radios":["Any Oil", "Water Leakage"]
        }
      },
      {
        "Name":"Chasis Damage",
        "YType":"Type4",
        "YFields":{
          "Radios" : []
        },
        "RType":"Type3",
        "RFields":{
          "Hint":"Note any Underbody Damage"
        }
      },
      {
        "Name":"Chassis Corrosion",
        "YType":"Type4",
        "YFields":{
          "Radios" : []
        },
        "RType":"Type3",
        "RFields":{
          "Hint":"Note any sign of Corrosion"
        }
      },
      {
        "Name":"Wiring Mountings",
        "YType":"Type4",
        "YFields":{
          "Radios" : ["Loose fittings"]
        },
        "RType":"Type4",
        "RFields":{
          "Radios":["Damaged", "Torn"]
        }
      },
      {
        "Name":"Condition and Mount of Exhaust Piping",
        "YType":"Type4",
        "YFields":{
          "Radios" : ["Loose fittings"]
        },
        "RType":"Type2",
        "RFields":{
          "Radios":["Broken", "Damaged"]
        }
      }
    ]
  },
  {
    "Index":7,
    "SectionName":"Scratch/Dent/Damage"
  },
  {
    "Index":8,
    "SectionName":"Acknowledge"
  }
]
